Name,OutCode,Time,Mem
breakid.sh+0001-quadruple_cone_5-25-1.asp.grnd+c6d37dec,0,0.2,14464,64,2,1,1830,9,600,60,669,200,
breakid.sh+0002-triple_cone_6-24-1.asp.grnd+dce0dd20,0,0.16,13060,62,2,1,1711,20,600,58,678,200,
breakid.sh+0003-quadruple_cone_6-30-1.asp.grnd+f91a3391,0,0.34,24080,75,2,1,2556,10,600,71,681,200,
breakid.sh+0004-double_cone_6-18-1.asp.grnd+2f54fb8a,0,0.06,6404,49,2,1,1035,7,600,45,652,200,
breakid.sh+0005-quadruple_cone_7-35-1.asp.grnd+89ce586b,0,0.66,37508,86,2,1,3403,9,600,82,691,200,
breakid.sh+0006-triple_cone_8-32-1.asp.grnd+14f6ff69,0,0.53,29464,81,2,1,2926,11,750,76,837,250,
breakid.sh+0007-windmill_5_2-20-1.asp.grnd+4623f9df,0,0.1,8508,57,2,1,1275,20,1050,50,1120,350,
breakid.sh+0008-clique_path_5_2-25-1.asp.grnd+1b954f56,0,0.23,14880,66,2,1,1891,11,750,61,822,250,
breakid.sh+0009-clique_path_6_2-36-1.asp.grnd+775ca178,0,1.06,41628,92,2,1,3655,16,1050,85,1151,350,
breakid.sh+0010-triple_cone_9-36-1.asp.grnd+96664fbf,0,0.74,41152,89,2,1,3655,11,600,85,696,200,
breakid.sh+0011-clique_path_8_2-64-1.asp.grnd+b5c02416,0,11.18,223748,153,2,1,10585,48,1200,145,1393,400,
breakid.sh+0012-clique_path_7_2-49-1.asp.grnd+c3713c2f,0,4.47,100988,121,2,1,6441,25,1200,113,1338,400,
breakid.sh+0013-clique_clique_3_3-18-1.asp.grnd+51488287,0,0.07,6560,51,2,1,1081,20,750,46,816,250,
breakid.sh+0014-clique_clique_4_3-30-1.asp.grnd+bf42fe93,0,0.47,24724,78,2,1,2701,16,750,73,839,250,
breakid.sh+0015-double_cone_10-30-1.asp.grnd+1ba41f23,0,0.47,24744,78,2,1,2701,12,750,73,835,250,
breakid.sh+0016-suspended_prism_5_2-25-1.asp.grnd+d91bca0d,0,0.2,14888,66,2,1,1953,7,600,62,669,200,
breakid.sh+0017-clique_clique_5_3-45-1.asp.grnd+9e6f51f3,0,2.33,79392,111,2,1,5671,21,750,106,877,250,
breakid.sh+0018-clique_clique_4_4-48-1.asp.grnd+3c8d8a51,0,3.57,96144,119,2,1,6441,28,900,113,1041,300,
breakid.sh+0019-windmill_4_3-18-1.asp.grnd+a9519dd5,0,0.08,6680,54,2,1,1128,19,1050,47,1116,350,
breakid.sh+0020-double_cone_12-36-1.asp.grnd+f0e4205,0,1.0,41716,92,2,1,3828,14,750,87,851,250,
breakid.sh+0021-windmill_5_3-30-1.asp.grnd+3c3c0769,0,0.63,25100,84,2,1,2775,40,1500,74,1614,500,
breakid.sh+0022-suspended_prism_6_2-30-1.asp.grnd+caacad0f,0,0.41,24820,78,2,1,2775,7,600,74,681,200,
breakid.sh+0023-double_cone_13-39-1.asp.grnd+82049f40,0,1.17,52408,98,2,1,4465,14,600,94,708,200,
breakid.sh+0024-suspended_prism_5_3-40-1.asp.grnd+9012bf52,0,1.23,56448,101,2,1,4753,6,600,97,703,200,
breakid.sh+0025-clique_wheel_4_4-40-1.asp.grnd+b946037f,0,1.46,56588,102,2,1,4753,26,750,97,873,250,
breakid.sh+0026-suspended_prism_7_2-35-1.asp.grnd+dd31c4ef,0,0.74,39112,90,2,1,3741,9,600,86,695,200,
breakid.sh+0027-suspended_prism_4_4-44-1.asp.grnd+ec952051,0,1.84,74968,110,2,1,5671,6,600,106,712,200,
breakid.sh+0028-clique_path_4_4-36-1.asp.grnd+85377175,0,0.82,42072,93,2,1,4005,7,600,89,696,200,
breakid.sh+0029-windmill_4_4-24-1.asp.grnd+fc395d9c,0,0.28,13908,71,2,1,1953,31,1350,62,1443,450,
breakid.sh+0030-windmill_5_4-40-1.asp.grnd+bd19554d,0,2.37,57968,111,2,1,4851,64,1950,98,2112,650,
breakid.sh+0031-suspended_prism_8_2-40-1.asp.grnd+67e9e830,0,1.21,57292,102,2,1,4851,17,600,98,715,200,
breakid.sh+0032-suspended_prism_6_3-48-1.asp.grnd+c4d78128,0,2.27,97096,120,2,1,6786,7,600,116,723,200,
breakid.sh+0033-doughnut_5_3-30-1.asp.grnd+30320f06,0,0.45,25396,80,2,1,2926,17,600,76,693,200,
breakid.sh+0034-doughnut_3_5-30-1.asp.grnd+33662ee5,0,0.4,25396,80,2,1,2926,17,600,76,693,200,
breakid.sh+0035-suspended_prism_5_4-55-1.asp.grnd+da01630f,0,4.41,145608,136,2,1,8778,6,600,132,738,200,
breakid.sh+0036-clique_wheel_4_5-50-1.asp.grnd+7ac7021,0,3.46,109700,126,2,1,7381,24,750,121,895,250,
breakid.sh+0037-windmill_4_5-30-1.asp.grnd+6d7f0ea5,0,0.7,26072,88,2,1,3003,46,1650,77,1773,550,
breakid.sh+0038-clique_path_4_5-46-1.asp.grnd+55c62216,0,2.6,97108,118,2,2,6444,4,450,5725,6179,2020,
breakid.sh+0039-doughnut_3_6-36-1.asp.grnd+6f809e3b,0,1.09,43600,96,2,1,4186,20,750,91,861,250,
breakid.sh+0040-doughnut_4_5-40-1.asp.grnd+d89eda6c,0,1.26,58288,105,2,1,5151,23,600,101,724,200,
breakid.sh+0041-windmill_4_6-36-1.asp.grnd+79ee1167,0,1.44,44516,105,2,1,4278,64,1950,92,2106,650,
breakid.sh+0042-clique_path_4_6-56-1.asp.grnd+a8e02131,0,5.76,174564,142,2,2,9456,4,450,8311,8765,2874,
breakid.sh+0043-doughnut_3_7-42-1.asp.grnd+1d8231c8,0,1.48,66896,110,2,1,5671,23,600,106,729,200,
breakid.sh+0044-prism_6_3-30-1.asp.grnd+979dfeb4,0,0.46,26140,83,2,1,3160,13,600,79,692,200,
breakid.sh+0045-triple_wheel_7-42-1.asp.grnd+b71baf8a,0,1.92,68288,114,2,1,5778,43,1050,107,1200,350,
breakid.sh+0046-prism_5_4-35-1.asp.grnd+cfa85fd1,0,0.84,40648,95,2,1,4186,8,600,91,699,200,
breakid.sh+0047-doughnut_4_6-48-1.asp.grnd+5bea33e,0,3.19,99924,126,2,1,7381,26,750,121,897,250,
breakid.sh+0048-triple_wheel_8-48-1.asp.grnd+4126fce2,0,3.57,100928,129,2,1,7503,49,1050,122,1221,350,
breakid.sh+0049-double_wheel_12-48-1.asp.grnd+e8e869b9,0,3.52,101460,129,2,1,7503,60,1050,122,1232,350,
breakid.sh+0050-prism_7_3-35-1.asp.grnd+ffd836ab,0,0.82,41200,96,2,1,4278,9,600,92,701,200,
breakid.sh+0051-prism_5_5-45-1.asp.grnd+84eea2ad,0,1.64,84084,119,2,1,6786,6,450,116,572,150,
breakid.sh+0052-prism_6_4-42-1.asp.grnd+e8d87351,0,1.51,68632,113,2,1,5995,13,600,109,722,200,
breakid.sh+0053-triple_wheel_9-54-1.asp.grnd+7c48464e,0,6.23,145780,145,2,1,9453,55,1200,137,1392,400,
breakid.sh+0054-double_wheel_13-52-1.asp.grnd+22c150db,0,3.78,126548,137,2,1,8778,40,750,132,922,250,
breakid.sh+0055-double_wheel_14-56-1.asp.grnd+b04c18d9,0,5.78,161460,148,2,1,10153,43,900,142,1085,300,
breakid.sh+0056-triple_wheel_10-60-1.asp.grnd+efa77f30,0,7.77,194512,159,2,1,11628,61,1050,152,1263,350,
breakid.sh+0057-double_wheel_15-60-1.asp.grnd+f45239e3,0,7.04,194960,158,2,1,11628,46,900,152,1098,300,
breakid.sh+0058-prism_6_5-54-1.asp.grnd+59bbfcd7,0,4.7,145272,144,2,1,9730,9,750,139,898,250,
breakid.sh+0059-prism_5_6-55-1.asp.grnd+eecf7b77,0,4.49,152172,145,2,1,10011,6,600,141,747,200,
breakid.sh+0060-prism_7_4-49-1.asp.grnd+68d69008,0,2.75,107580,131,2,1,8128,15,600,127,742,200,
breakid.sh+100.asp.grnd+ab2c6a4d,0,12.48,623056,101,2,1,4950,2,300,99,401,100,
breakid.sh+150.asp.grnd+93a3e812,0,42.24,2074196,151,2,1,11175,2,300,149,451,100,
breakid.sh+200.asp.grnd+b2de0fac,0,108.54,4969756,201,2,1,19900,2,300,199,501,100,
breakid.sh+250.asp.grnd+9b558d71,0,53.89,6218012
breakid.sh+300.asp.grnd+ba8fb50b,0,65.57,7092120
breakid.sh+350.asp.grnd+a30732d0,0,68.37,6081876
breakid.sh+400.asp.grnd+c2415a6a,0,93.38,7216756
breakid.sh+450.asp.grnd+aab8d82f,0,101.27,7216756
breakid.sh+50.asp.grnd+e489b5c5,0,1.02,78360,51,2,1,1225,2,300,49,351,100,
breakid.sh+500.asp.grnd+c9f2ffc9,0,112.62,7217016
breakid.sh+550.asp.grnd+b26a7d8e,0,127.27,7217016
breakid.sh+600.asp.grnd+d1a4a528,0,143.12,7217012
breakid.sh+650.asp.grnd+ba1c22ed,0,164.76,7217012
breakid.sh+700.asp.grnd+d9564a87,0,188.72,7217008
breakid.sh+750.asp.grnd+c1cdc84c,0,209.16,7217004
breakid.sh+crew-1-10-small.asp.grnd+956177ab,0,0.0,1736,81,4,1,3081,3,261,78,342,87,
breakid.sh+crew-1-11-small.asp.grnd+76f3558a,0,0.0,1744,85,4,2,3324,2,174,257,433,116,
breakid.sh+crew-1-12-small.asp.grnd+58853369,0,0.0,1740,86,3,1,3570,2,174,84,260,58,
breakid.sh+crew-1-13-small.asp.grnd+3a171148,0,0.0,1740,92,5,2,3831,3,261,263,527,145,
breakid.sh+crew-1-14-small.asp.grnd+1ba8ef27,0,0.0,1736,95,5,2,4098,3,261,266,530,145,
breakid.sh+crew-1-15-small.asp.grnd+fd3acd06,0,0.01,1744,99,6,2,4374,4,348,269,621,174,
breakid.sh+crew-1-16-small.asp.grnd+deccaae5,0,0.0,1736,103,6,3,4662,3,261,448,712,203,
breakid.sh+crew-1-17-small.asp.grnd+c05e88c4,0,0.0,1736,107,7,2,4956,5,435,363,803,232,
breakid.sh+crew-1-18-small.asp.grnd+a1f066a3,0,0.01,1736,108,5,3,5259,2,174,454,630,174,
breakid.sh+crew-1-19-small.asp.grnd+83824482,0,0.01,1724,113,6,3,5574,3,261,545,809,232,
breakid.sh+crew-1-20-small.asp.grnd+e60b55ac,0,0.01,1756,117,8,3,5892,5,435,460,900,261,
breakid.sh+crew-1-21-small.asp.grnd+c79d338b,0,0.01,1812,122,7,3,6232,4,348,727,1079,319,
breakid.sh+crew-1-22-small.asp.grnd+a92f116a,0,0.01,1992,126,7,5,6573,2,174,994,1170,348,
breakid.sh+crew-1-23-small.asp.grnd+8ac0ef49,0,0.02,2096,129,7,6,6921,1,87,1085,1173,348,
breakid.sh+crew-1-24-small.asp.grnd+6c52cd28,0,0.02,2160,133,8,6,7278,2,174,1088,1264,377,
breakid.sh+crew-1-25-small.asp.grnd+4de4ab07,0,0.02,2300,138,8,7,7650,1,87,1355,1443,435,
breakid.sh+crew-1-5-small.asp.grnd+e119d66b,0,0.0,1720,84,4,10,2094,2,57,235,294,67,
breakid.sh+crew-1-6-small.asp.grnd+c2abb44a,0,0.0,1736,78,4,3,2241,2,73,76,151,24,
breakid.sh+crew-1-7-small.asp.grnd+a43d9229,0,0.0,1736,70,2,1,2415,1,87,69,157,29,
breakid.sh+crew-1-8-small.asp.grnd+85cf7008,0,0.0,1740,73,2,1,2628,1,87,72,160,29,
breakid.sh+crew-1-9-small.asp.grnd+67614de7,0,0.0,1724,77,3,1,2850,2,174,75,251,58,
breakid.sh+crew-2-10-small.asp.grnd+630bd96c,0,0.0,1740,81,4,1,3081,3,261,78,342,87,
breakid.sh+crew-2-11-small.asp.grnd+449db74b,0,0.0,1740,85,4,2,3324,2,174,257,433,116,
breakid.sh+crew-2-12-small.asp.grnd+262f952a,0,0.0,1724,86,3,1,3570,2,174,84,260,58,
breakid.sh+crew-2-13-small.asp.grnd+7c17309,0,0.0,1736,92,5,2,3831,3,261,263,527,145,
breakid.sh+crew-2-14-small.asp.grnd+e95350e8,0,0.0,1744,95,5,2,4098,3,261,266,530,145,
breakid.sh+crew-2-15-small.asp.grnd+cae52ec7,0,0.01,1736,99,6,2,4374,4,348,269,621,174,
breakid.sh+crew-2-16-small.asp.grnd+ac770ca6,0,0.01,1732,103,6,3,4662,3,261,448,712,203,
breakid.sh+crew-2-17-small.asp.grnd+8e08ea85,0,0.0,1748,107,7,2,4956,5,435,363,803,232,
breakid.sh+crew-2-18-small.asp.grnd+6f9ac864,0,0.0,1744,108,5,3,5259,2,174,454,630,174,
breakid.sh+crew-2-19-small.asp.grnd+512ca643,0,0.01,1740,113,6,3,5574,3,261,545,809,232,
breakid.sh+crew-2-20-small.asp.grnd+b3b5b76d,0,0.01,1768,117,8,3,5892,5,435,460,900,261,
breakid.sh+crew-2-21-small.asp.grnd+9547954c,0,0.01,1868,122,7,3,6232,4,348,727,1079,319,
breakid.sh+crew-2-22-small.asp.grnd+76d9732b,0,0.01,2036,126,7,5,6573,2,174,994,1170,348,
breakid.sh+crew-2-23-small.asp.grnd+586b510a,0,0.01,2132,129,7,6,6921,1,87,1085,1173,348,
breakid.sh+crew-2-24-small.asp.grnd+39fd2ee9,0,0.01,2184,133,8,6,7278,2,174,1088,1264,377,
breakid.sh+crew-2-25-small.asp.grnd+1b8f0cc8,0,0.02,2344,138,8,7,7650,1,87,1355,1443,435,
breakid.sh+crew-2-5-small.asp.grnd+a5abb88a,0,0.0,1724,84,4,10,2094,2,57,235,294,67,
breakid.sh+crew-2-6-small.asp.grnd+873d9669,0,0.0,1720,79,4,3,2241,3,142,76,221,47,
breakid.sh+crew-2-7-small.asp.grnd+68cf7448,0,0.0,1724,70,2,1,2415,1,87,69,157,29,
breakid.sh+crew-2-8-small.asp.grnd+4a615227,0,0.0,1736,73,2,1,2628,1,87,72,160,29,
breakid.sh+crew-2-9-small.asp.grnd+2bf33006,0,0.0,1724,77,3,1,2850,2,174,75,251,58,
breakid.sh+holes10.asp.grnd+dac1c910,0,0.01,1728,35,2,2,207,45,1023,242,1310,413,
breakid.sh+holes100.asp.grnd+9abd55de,0,159.82,372912,395,2,2,24552,4950,14850,29402,49202,14652,
breakid.sh+holes11.asp.grnd+cf0b3a2f,0,0.0,1728,39,2,2,255,55,1338,299,1692,536,
breakid.sh+holes12.asp.grnd+c354ab4e,0,0.01,1724,43,2,2,308,66,1563,362,1991,631,
breakid.sh+holes13.asp.grnd+b79e1c6d,0,0.02,1760,47,2,2,366,78,1800,431,2309,732,
breakid.sh+holes14.asp.grnd+abe78d8c,0,0.02,1904,51,2,2,429,91,1746,506,2343,738,
breakid.sh+holes15.asp.grnd+a030feab,0,0.03,2148,55,2,2,497,105,2052,587,2744,866,
breakid.sh+holes20.asp.grnd+6fa67bd1,0,0.1,3872,75,2,2,912,190,2724,1082,3996,1250,
breakid.sh+holes30.asp.grnd+48b2e92,0,0.48,10764,115,2,2,2117,435,4350,2522,7307,2262,
breakid.sh+holes5.asp.grnd+8ceec1a,0,0.0,1736,15,2,2,42,10,102,47,159,46,
breakid.sh+holes50.asp.grnd+2e549414,0,5.64,47468,195,2,2,6027,1225,7350,7202,15777,4802,
breakid.sh+holes6.asp.grnd+fd185d39,0,0.0,1724,19,2,2,65,15,165,74,254,75,
breakid.sh+holes7.asp.grnd+f161ce58,0,0.0,1736,23,2,2,93,21,339,107,467,143,
breakid.sh+holes70.asp.grnd+581df996,0,34.65,128692,275,2,2,11937,2415,10350,14282,27047,8142,
breakid.sh+holes8.asp.grnd+e5ab3f77,0,0.0,1736,27,2,2,126,28,471,146,645,199,
breakid.sh+holes9.asp.grnd+d9f4b096,0,0.0,1740,31,2,2,164,36,657,191,884,275,
