Name,OutCode,Time,Mem
sbass.sh+0001-quadruple_cone_5-25-1.asp.grnd+e8832b64,0,0.09,5480,26868,94111,6,1176,294,
sbass.sh+0002-triple_cone_6-24-1.asp.grnd+ed34e2a8,0,0.07,4996,23976,83732,5,980,245,
sbass.sh+0003-quadruple_cone_6-30-1.asp.grnd+1ac9e109,0,0.19,8676,45311,160207,6,1176,294,
sbass.sh+0004-double_cone_6-18-1.asp.grnd+3fa90112,0,0.02,2636,10748,36666,4,784,196,
sbass.sh+0005-quadruple_cone_7-35-1.asp.grnd+ab7e05e3,0,0.32,13272,70775,251796,6,1176,294,
sbass.sh+0006-triple_cone_8-32-1.asp.grnd+254b04f1,0,0.2,10240,54839,194241,5,980,245,
sbass.sh+0007-windmill_5_2-20-1.asp.grnd+6ff52357,0,0.04,3320,14528,49936,7,1372,343,
sbass.sh+0008-clique_path_5_2-25-1.asp.grnd+66fe12de,0,0.08,5556,27166,94927,5,980,245,
sbass.sh+0009-clique_path_6_2-36-1.asp.grnd+c2c56500,0,0.36,14300,77208,274652,6,1176,294,
sbass.sh+0010-triple_cone_9-36-1.asp.grnd+a6ba5547,0,0.34,14428,77208,274652,6,1176,294,
sbass.sh+0011-clique_path_8_2-64-1.asp.grnd+128e79e,0,4.02,75136,414430,1496842,8,1568,392,
sbass.sh+0012-clique_path_7_2-49-1.asp.grnd+ed9ffb7,0,1.36,34580,189286,679807,7,1372,343,
sbass.sh+0013-clique_clique_3_3-18-1.asp.grnd+658e840f,0,0.02,2660,10950,37208,4,784,196,
sbass.sh+0014-clique_clique_4_3-30-1.asp.grnd+d389001b,0,0.17,8764,46110,162428,5,980,245,
sbass.sh+0015-double_cone_10-30-1.asp.grnd+15d0ca9b,0,0.13,8700,46110,162428,4,784,196,
sbass.sh+0016-suspended_prism_5_2-25-1.asp.grnd+f3e78995,0,0.07,5672,27490,95821,4,784,196,
sbass.sh+0017-clique_clique_5_3-45-1.asp.grnd+b2b5537b,0,0.89,27304,148776,532247,6,1176,294,
sbass.sh+0018-clique_clique_4_4-48-1.asp.grnd+50d38bd9,0,1.13,32964,179966,644698,6,1176,294,
sbass.sh+0019-windmill_4_3-18-1.asp.grnd+d322c74d,0,0.03,2636,11171,37807,7,1372,343,
sbass.sh+0020-double_cone_12-36-1.asp.grnd+93aed7d,0,0.37,14656,78305,277743,6,1176,294,
sbass.sh+0021-windmill_5_3-30-1.asp.grnd+660d30e1,0,0.24,9028,46556,163678,10,1960,490,
sbass.sh+0022-suspended_prism_6_2-30-1.asp.grnd+e5786c97,0,0.16,8840,46556,163678,5,980,245,
sbass.sh+0023-double_cone_13-39-1.asp.grnd+7c314ab8,0,0.35,18184,98913,351722,4,784,196,
sbass.sh+0024-suspended_prism_5_3-40-1.asp.grnd+aade7eda,0,0.3,19572,106990,380386,3,588,147,
sbass.sh+0025-clique_wheel_4_4-40-1.asp.grnd+daf5b0f7,0,0.47,19572,106990,380386,5,980,245,
sbass.sh+0026-suspended_prism_7_2-35-1.asp.grnd+f7fd8477,0,0.21,13432,72911,257812,3,588,147,
sbass.sh+0027-suspended_prism_4_4-44-1.asp.grnd+760dfd9,0,0.55,25976,141092,503172,4,784,196,
sbass.sh+0028-clique_path_4_4-36-1.asp.grnd+d0a034fd,0,0.32,14828,79550,281278,5,980,245,
sbass.sh+0029-windmill_4_4-24-1.asp.grnd+260a8714,0,0.1,5576,25274,87322,9,1764,441,
sbass.sh+0030-windmill_5_4-40-1.asp.grnd+e6ea7ec5,0,0.89,19688,107740,382528,13,2548,637,
sbass.sh+0031-suspended_prism_8_2-40-1.asp.grnd+82b5a7b8,0,0.52,19680,107740,382528,5,980,245,
sbass.sh+0032-suspended_prism_6_3-48-1.asp.grnd+dfa340b0,0,0.72,33168,182795,652813,4,784,196,
sbass.sh+0033-doughnut_5_3-30-1.asp.grnd+5a03387e,0,0.15,9052,47541,166457,4,784,196,
sbass.sh+0034-doughnut_3_5-30-1.asp.grnd+5d37585d,0,0.14,9012,47541,166457,4,784,196,
sbass.sh+0035-suspended_prism_5_4-55-1.asp.grnd+f4cd2297,0,1.12,49408,272265,975526,3,588,147,
sbass.sh+0036-clique_wheel_4_5-50-1.asp.grnd+295c1d99,0,1.03,37512,206426,737652,4,784,196,
sbass.sh+0037-windmill_4_5-30-1.asp.grnd+9750381d,0,0.28,9272,48080,167986,11,2156,539,
sbass.sh+0038-clique_path_4_5-46-1.asp.grnd+a12ee59e,0,0.7,29472,162994,580360,5,980,245,
sbass.sh+0039-doughnut_3_6-36-1.asp.grnd+9951c7b3,0,0.39,15056,80943,285257,5,980,245,
sbass.sh+0040-doughnut_4_5-40-1.asp.grnd+27003e4,0,0.41,20356,110236,389692,4,784,196,
sbass.sh+0041-windmill_4_6-36-1.asp.grnd+a3bf3adf,0,0.64,14916,81695,287413,13,2548,637,
sbass.sh+0042-clique_path_4_6-56-1.asp.grnd+f448e4b9,0,1.46,52600,290810,1039798,5,980,245,
sbass.sh+0043-doughnut_3_7-42-1.asp.grnd+47535b40,0,0.52,23272,127224,450326,4,784,196,
sbass.sh+0044-prism_6_3-30-1.asp.grnd+c3a2083c,0,0.15,9388,49251,171323,4,784,196,
sbass.sh+0045-triple_wheel_7-42-1.asp.grnd+b1485b02,0,0.65,23448,128225,453217,7,1372,343,
sbass.sh+0046-prism_5_4-35-1.asp.grnd+fbac6959,0,0.25,14260,76391,267762,4,784,196,
sbass.sh+0047-doughnut_4_6-48-1.asp.grnd+2f8fccb6,0,1.04,34364,188490,669278,5,980,245,
sbass.sh+0048-triple_wheel_8-48-1.asp.grnd+3b53a85a,0,1.09,34312,189776,673012,7,1372,343,
sbass.sh+0049-double_wheel_12-48-1.asp.grnd+34512d41,0,1.0,34580,189776,673012,6,1176,294,
sbass.sh+0050-prism_7_3-35-1.asp.grnd+2bdc4033,0,0.23,14396,77195,270076,3,588,147,
sbass.sh+0051-prism_5_5-45-1.asp.grnd+b0f2ac35,0,0.57,28972,158786,561097,4,784,196,
sbass.sh+0052-prism_6_4-42-1.asp.grnd+14dc7cd9,0,0.59,23804,130356,459386,5,980,245,
sbass.sh+0053-triple_wheel_9-54-1.asp.grnd+7674f1c6,0,1.79,48680,268454,954412,8,1568,392,
sbass.sh+0054-double_wheel_13-52-1.asp.grnd+6e2a1463,0,1.25,43812,240195,853297,5,980,245,
sbass.sh+0055-double_wheel_14-56-1.asp.grnd+fbb4dc61,0,1.77,54184,298850,1063218,6,1176,294,
sbass.sh+0056-triple_wheel_10-60-1.asp.grnd+3b1042b8,0,2.48,66372,366365,1305031,7,1372,343,
sbass.sh+0057-double_wheel_15-60-1.asp.grnd+3fbafd6b,0,2.07,66376,366365,1305031,5,980,245,
sbass.sh+0058-prism_6_5-54-1.asp.grnd+85c0065f,0,1.39,49248,271833,964277,5,980,245,
sbass.sh+0059-prism_5_6-55-1.asp.grnd+1ad384ff,0,1.12,51696,285981,1015432,3,588,147,
sbass.sh+0060-prism_7_4-49-1.asp.grnd+94da9990,0,0.72,37220,205204,725797,3,588,147,
sbass.sh+100.asp.grnd+568279c5,0,5.75,205948,1173902,3527000,2,392,98,
sbass.sh+150.asp.grnd+3ef9f78a,0,30.47,697036,3952102,11871750,2,392,98,
sbass.sh+200.asp.grnd+5e341f24,0,98.12,1650808,9357802,28104000,2,392,98,
sbass.sh+250.asp.grnd+46ab9ce9,0,13.03,1697592
sbass.sh+300.asp.grnd+65e5c483,0,18.88,2456364
sbass.sh+350.asp.grnd+4e5d4248,0,22.34,2898500
sbass.sh+400.asp.grnd+6d9769e2,0,29.59,3802324
sbass.sh+450.asp.grnd+560ee7a7,0,39.97,5141884
sbass.sh+50.asp.grnd+86f7d74d,0,0.36,26280,148202,444750,2,392,98,
sbass.sh+500.asp.grnd+75490f41,0,54.04,6928848
sbass.sh+550.asp.grnd+5dc08d06,0,55.44,7114192
sbass.sh+600.asp.grnd+7cfab4a0,0,55.55,7114136
sbass.sh+650.asp.grnd+65723265,0,55.77,7114168
sbass.sh+700.asp.grnd+84ac59ff,0,55.51,7114032
sbass.sh+750.asp.grnd+6d23d7c4,0,55.36,7114580
sbass.sh+crew-1-10-small.asp.grnd+1ad94f33,0,0.0,1684,1229,2321,3,348,87,
sbass.sh+crew-1-11-small.asp.grnd+fc6b2d12,0,0.0,1684,1327,2556,4,464,116,
sbass.sh+crew-1-12-small.asp.grnd+ddfd0af1,0,0.0,1680,1425,2795,2,232,58,
sbass.sh+crew-1-13-small.asp.grnd+bf8ee8d0,0,0.0,1684,1523,3038,5,580,145,
sbass.sh+crew-1-14-small.asp.grnd+a120c6af,0,0.0,1680,1624,3302,5,580,145,
sbass.sh+crew-1-15-small.asp.grnd+82b2a48e,0,0.0,1684,1722,3554,6,696,174,
sbass.sh+crew-1-16-small.asp.grnd+6444826d,0,0.0,1680,1820,3810,7,812,203,
sbass.sh+crew-1-17-small.asp.grnd+45d6604c,0,0.0,1684,1918,4070,8,928,232,
sbass.sh+crew-1-18-small.asp.grnd+27683e2b,0,0.0,1680,2016,4334,6,696,174,
sbass.sh+crew-1-19-small.asp.grnd+8fa1c0a,0,0.0,1684,2114,4602,8,928,232,
sbass.sh+crew-1-20-small.asp.grnd+6b832d34,0,0.0,1680,2212,4874,9,1044,261,
sbass.sh+crew-1-21-small.asp.grnd+4d150b13,0,0.0,1684,2310,5150,11,1276,319,
sbass.sh+crew-1-22-small.asp.grnd+2ea6e8f2,0,0.0,1684,2408,5430,12,1392,348,
sbass.sh+crew-1-23-small.asp.grnd+1038c6d1,0,0.0,1684,2506,5714,12,1392,348,
sbass.sh+crew-1-24-small.asp.grnd+f1caa4b0,0,0.0,1684,2604,6002,13,1508,377,
sbass.sh+crew-1-25-small.asp.grnd+d35c828f,0,0.0,1684,2702,6294,15,1740,435,
sbass.sh+crew-1-5-small.asp.grnd+5904ede3,0,0.0,1420,401,451,21,172,39,
sbass.sh+crew-1-6-small.asp.grnd+3a96cbc2,0,0.0,1420,621,882,12,106,24,
sbass.sh+crew-1-7-small.asp.grnd+1c28a9a1,0,0.0,1420,905,1596,1,116,29,
sbass.sh+crew-1-8-small.asp.grnd+fdba8780,0,0.0,1420,1033,1863,1,116,29,
sbass.sh+crew-1-9-small.asp.grnd+df4c655f,0,0.0,1684,1131,2090,2,232,58,
sbass.sh+crew-2-10-small.asp.grnd+e883b0f4,0,0.0,1684,1269,2441,3,348,87,
sbass.sh+crew-2-11-small.asp.grnd+ca158ed3,0,0.0,1680,1371,2688,4,464,116,
sbass.sh+crew-2-12-small.asp.grnd+aba76cb2,0,0.0,1684,1473,2939,2,232,58,
sbass.sh+crew-2-13-small.asp.grnd+8d394a91,0,0.0,1684,1575,3194,5,580,145,
sbass.sh+crew-2-14-small.asp.grnd+6ecb2870,0,0.0,1684,1677,3453,5,580,145,
sbass.sh+crew-2-15-small.asp.grnd+505d064f,0,0.0,1684,1779,3716,6,696,174,
sbass.sh+crew-2-16-small.asp.grnd+31eee42e,0,0.0,1684,1881,3983,7,812,203,
sbass.sh+crew-2-17-small.asp.grnd+1380c20d,0,0.0,1684,1983,4254,8,928,232,
sbass.sh+crew-2-18-small.asp.grnd+f5129fec,0,0.0,1684,2085,4529,6,696,174,
sbass.sh+crew-2-19-small.asp.grnd+d6a47dcb,0,0.0,1684,2187,4808,8,928,232,
sbass.sh+crew-2-20-small.asp.grnd+392d8ef5,0,0.0,1684,2292,5114,9,1044,261,
sbass.sh+crew-2-21-small.asp.grnd+1abf6cd4,0,0.0,1684,2394,5402,11,1276,319,
sbass.sh+crew-2-22-small.asp.grnd+fc514ab3,0,0.0,1684,2496,5694,12,1392,348,
sbass.sh+crew-2-23-small.asp.grnd+dde32892,0,0.0,1680,2598,5990,12,1392,348,
sbass.sh+crew-2-24-small.asp.grnd+bf750671,0,0.0,1684,2700,6290,13,1508,377,
sbass.sh+crew-2-25-small.asp.grnd+a106e450,0,0.0,1684,2802,6594,15,1740,435,
sbass.sh+crew-2-5-small.asp.grnd+1d96d002,0,0.0,1420,401,451,21,172,39,
sbass.sh+crew-2-6-small.asp.grnd+ff28ade1,0,0.0,1416,627,900,13,226,54,
sbass.sh+crew-2-7-small.asp.grnd+e0ba8bc0,0,0.0,1416,933,1680,1,116,29,
sbass.sh+crew-2-8-small.asp.grnd+c24c699f,0,0.0,1420,1065,1959,1,116,29,
sbass.sh+crew-2-9-small.asp.grnd+a3de477e,0,0.0,1684,1167,2198,2,232,58,
sbass.sh+holes10.asp.grnd+8d1da88,0,0.0,1420,665,1534,16,1872,468,
sbass.sh+holes100.asp.grnd+2eaf7366,0,672.41,93392,510650,1500349,196,38416,9604,
sbass.sh+holes11.asp.grnd+fd1b4ba7,0,0.01,1684,858,2034,18,2476,619,
sbass.sh+holes12.asp.grnd+f164bcc6,0,0.01,1684,1086,2633,20,2968,742,
sbass.sh+holes13.asp.grnd+e5ae2de5,0,0.01,1684,1352,3340,22,3544,886,
sbass.sh+holes14.asp.grnd+d9f79f04,0,0.02,1680,1659,4164,24,4000,1000,
sbass.sh+holes15.asp.grnd+ce411023,0,0.03,1684,2010,5114,26,4456,1114,
sbass.sh+holes20.asp.grnd+9db68d49,0,0.13,1948,4530,12069,36,6616,1654,
sbass.sh+holes30.asp.grnd+329b400a,0,1.11,4252,14595,40604,56,10736,2684,
sbass.sh+holes5.asp.grnd+c83acba2,0,0.0,1420,120,204,6,168,42,
sbass.sh+holes50.asp.grnd+5c64a58c,0,20.36,11860,65325,187674,96,18816,4704,
sbass.sh+holes6.asp.grnd+bc843cc1,0,0.0,1420,183,344,8,312,78,
sbass.sh+holes7.asp.grnd+b0cdade0,0,0.0,1420,266,538,10,556,139,
sbass.sh+holes70.asp.grnd+862e0b0e,0,121.33,30968,176855,514744,136,26656,6664,
sbass.sh+holes8.asp.grnd+a5171eff,0,0.0,1416,372,795,12,848,212,
sbass.sh+holes9.asp.grnd+9960901e,0,0.0,1420,504,1124,14,1224,306,
